posting title:                             City or neighborhood     zip 
Get 28% From the Loads or up to 65 CPM           Bridgeview, IL          60455



<b>COMPANY SOLO DRIVERS</b><br>
<b>Get 28 % From the Gross or up to 65 CPM </b><br>
<br>
<b>if you have 3 - 6 months experience (1099 position) 25% from the Gross (50 CPM)</b><br> 
<b>if you have 7 - 10 months experience (1099 position) 27% from the Gross (55 CPM)</b><br> 
<b>If you have 10+ months experience (1099 position) 28% from the Gross(60 CPM)</b><br>
<b>Get + 5 CPM if you have  Hazmat Endorsement 
<br>
<b>REQUIREMENTS</b><br>
<br>
<b>   </b>● Valid CDL Class A<br>
<b>   </b>● If no experience must have CDL school diploma with 160 hr<br>
<b>   </b>● Minimum of 23 years old<br>
<b>   </b>● More then 3 months verifiable OTR (truck/trailer) experience<br>	
<b>   </b>● Clean MVR (no accidents in the past 3 years)<br>
<b>   </b>● No criminal record<br>
<b>   </b>● Must read and speak English<br>
<b>   </b>● Must have own smartphone<br>
<br>
<b>WE OFFER</b><br>
<br>
<b>   </b>● Every two weeks HOME time<br>
<b>   </b>● Dedicated routes<br> 
<b>   </b>● Pet Policy<br>
<b>   </b>● Passenger Policy<br> 
<b>   </b>● Newer - Well Maintained Equipment<br>
<b>   </b>● Paid Orientation (travel and lodging)<br> 
<b>   </b>● 24/7 Service/Dispatch Support<br>
<br>
<b>Call 708 669-0427 Zorica</b><br>


compensation
Get 28% From the Loads or up to 65 CPM

e-mail
zorica.k@advance77.com

phone number        Extension
(708) 669-0427         505

       street          cross street          city
7350 W 103rd Street       HARLEM          Bridgeview, IL

